ST 412/512 Lab 8: Two-way ANOVA
…
First, calculate the mean response for each Block–Treatment combination.

Group the Data:

seaweed1 <- group_by(seaweed, Block, Treat)

Printing seaweed1 shows a tibble with grouping information (first by Block, then by Treat).

Summarize the Data:

seaweed2 <- summarize(seaweed1, Trt_mean = mean(logitCover))
seaweed2

# A tibble: 48 × 3
# Groups:   Block [8]
   Block Treat Trt_mean
   <fct> <fct>    <dbl>
 1 B1    C       -1.51 
 2 B1    L       -3.18 
 3 B1    Lf      -3.21 
 4 B1    LfF     -4.24 
 5 B1    f       -1.62 
 6 B1    fF      -2.05 
 7 B2    C       -0.942
 8 B2    L       -2.51 
 9 B2    Lf      -3.11 
10 B2    LfF     -3.21 
# ℹ 38 more rows
…
