st565-final-project-bca
…
# A tibble: 3 × 2
  Light_Conditions         cases
  <chr>                    <int>
1 Darkness - lights lit   116223
2 Darkness - lights unlit   2543
3 Daylight                484872

accidentDs %>%
  group_by(District_Area) %>%
  summarise(cases = n())

# A tibble: 385 × 2
   District_Area   cases
   <chr>           <int>
 1 Aberdeen City    1323
 2 Aberdeenshire    1930
 3 Adur              619
 4 Allerdale        1128
 5 Alnwick           232
 6 Amber Valley     1347
 7 Angus             796
 8 Argyll and Bute   836
 9 Arun             1376
10 Ashfield         1395
# ℹ 375 more rows
…
